desc: --time-unit=ms --massif-out-file=massif.pthreads.matmult.out
cmd: ./pthreads.matmult 1500
time_unit: ms
#-----------
snapshot=0
#-----------
time=0
mem_heap_B=0
mem_heap_extra_B=0
mem_stacks_B=0
heap_tree=empty
#-----------
snapshot=1
#-----------
time=861
mem_heap_B=4096
mem_heap_extra_B=8
mem_stacks_B=0
heap_tree=empty
#-----------
snapshot=2
#-----------
time=891
mem_heap_B=18004120
mem_heap_extra_B=1888
mem_stacks_B=0
heap_tree=empty
#-----------
snapshot=3
#-----------
time=9801
mem_heap_B=18004144
mem_heap_extra_B=1904
mem_stacks_B=0
heap_tree=empty
#-----------
snapshot=4
#-----------
time=9836
mem_heap_B=36005504
mem_heap_extra_B=3808
mem_stacks_B=0
heap_tree=empty
#-----------
snapshot=5
#-----------
time=10221
mem_heap_B=36005776
mem_heap_extra_B=3816
mem_stacks_B=0
heap_tree=empty
#-----------
snapshot=6
#-----------
time=10471
mem_heap_B=36006048
mem_heap_extra_B=3824
mem_stacks_B=0
heap_tree=empty
#-----------
snapshot=7
#-----------
time=10473
mem_heap_B=36006320
mem_heap_extra_B=3832
mem_stacks_B=0
heap_tree=empty
#-----------
snapshot=8
#-----------
time=188975
mem_heap_B=36006320
mem_heap_extra_B=3832
mem_stacks_B=0
heap_tree=peak
n3: 36006320 (heap allocation functions) malloc/new/new[], --alloc-fns, etc.
 n1: 18000000 0x401596: mat_pmult (in /home/spp/eda/build-release/examples/matmult/pthreads.matmult)
  n0: 18000000 0x4018F6: main (in /home/spp/eda/build-release/examples/matmult/pthreads.matmult)
 n0: 18000000 0x40185D: main (in /home/spp/eda/build-release/examples/matmult/pthreads.matmult)
 n0: 6320 in 4 places, all below massif's threshold (1.00%)
#-----------
snapshot=9
#-----------
time=189168
mem_heap_B=36006320
mem_heap_extra_B=3832
mem_stacks_B=0
heap_tree=empty
#-----------
snapshot=10
#-----------
time=369460
mem_heap_B=36006048
mem_heap_extra_B=3824
mem_stacks_B=0
heap_tree=empty
#-----------
snapshot=11
#-----------
time=369460
mem_heap_B=36005232
mem_heap_extra_B=3800
mem_stacks_B=0
heap_tree=empty
#-----------
snapshot=12
#-----------
time=369866
mem_heap_B=36005504
mem_heap_extra_B=3808
mem_stacks_B=0
heap_tree=empty
#-----------
snapshot=13
#-----------
time=369939
mem_heap_B=36006320
mem_heap_extra_B=3832
mem_stacks_B=0
heap_tree=empty
#-----------
snapshot=14
#-----------
time=550131
mem_heap_B=36006048
mem_heap_extra_B=3824
mem_stacks_B=0
heap_tree=empty
#-----------
snapshot=15
#-----------
time=550132
mem_heap_B=36005504
mem_heap_extra_B=3808
mem_stacks_B=0
heap_tree=empty
#-----------
snapshot=16
#-----------
time=550456
mem_heap_B=36005776
mem_heap_extra_B=3816
mem_stacks_B=0
heap_tree=empty
#-----------
snapshot=17
#-----------
time=550944
mem_heap_B=36006048
mem_heap_extra_B=3824
mem_stacks_B=0
heap_tree=empty
#-----------
snapshot=18
#-----------
time=550944
mem_heap_B=36006320
mem_heap_extra_B=3832
mem_stacks_B=0
heap_tree=empty
#-----------
snapshot=19
#-----------
time=733284
mem_heap_B=36006048
mem_heap_extra_B=3824
mem_stacks_B=0
heap_tree=empty
#-----------
snapshot=20
#-----------
time=733284
mem_heap_B=36005232
mem_heap_extra_B=3800
mem_stacks_B=0
heap_tree=empty
#-----------
snapshot=21
#-----------
time=734566
mem_heap_B=36005504
mem_heap_extra_B=3808
mem_stacks_B=0
heap_tree=empty
#-----------
snapshot=22
#-----------
time=734982
mem_heap_B=36005776
mem_heap_extra_B=3816
mem_stacks_B=0
heap_tree=detailed
n3: 36005776 (heap allocation functions) malloc/new/new[], --alloc-fns, etc.
 n1: 18000000 0x401596: mat_pmult (in /home/spp/eda/build-release/examples/matmult/pthreads.matmult)
  n0: 18000000 0x4018F6: main (in /home/spp/eda/build-release/examples/matmult/pthreads.matmult)
 n0: 18000000 0x40185D: main (in /home/spp/eda/build-release/examples/matmult/pthreads.matmult)
 n0: 5776 in 4 places, all below massif's threshold (1.00%)
#-----------
snapshot=23
#-----------
time=735936
mem_heap_B=36006048
mem_heap_extra_B=3824
mem_stacks_B=0
heap_tree=empty
#-----------
snapshot=24
#-----------
time=735948
mem_heap_B=36006320
mem_heap_extra_B=3832
mem_stacks_B=0
heap_tree=empty
#-----------
snapshot=25
#-----------
time=913644
mem_heap_B=36006048
mem_heap_extra_B=3824
mem_stacks_B=0
heap_tree=empty
#-----------
snapshot=26
#-----------
time=913644
mem_heap_B=36005776
mem_heap_extra_B=3816
mem_stacks_B=0
heap_tree=empty
#-----------
snapshot=27
#-----------
time=915282
mem_heap_B=36005504
mem_heap_extra_B=3808
mem_stacks_B=0
heap_tree=empty
#-----------
snapshot=28
#-----------
time=915386
mem_heap_B=36006048
mem_heap_extra_B=3824
mem_stacks_B=0
heap_tree=empty
#-----------
snapshot=29
#-----------
time=915582
mem_heap_B=36006320
mem_heap_extra_B=3832
mem_stacks_B=0
heap_tree=detailed
n3: 36006320 (heap allocation functions) malloc/new/new[], --alloc-fns, etc.
 n1: 18000000 0x401596: mat_pmult (in /home/spp/eda/build-release/examples/matmult/pthreads.matmult)
  n0: 18000000 0x4018F6: main (in /home/spp/eda/build-release/examples/matmult/pthreads.matmult)
 n0: 18000000 0x40185D: main (in /home/spp/eda/build-release/examples/matmult/pthreads.matmult)
 n0: 6320 in 4 places, all below massif's threshold (1.00%)
#-----------
snapshot=30
#-----------
time=1095855
mem_heap_B=36006048
mem_heap_extra_B=3824
mem_stacks_B=0
heap_tree=empty
#-----------
snapshot=31
#-----------
time=1096011
mem_heap_B=36006320
mem_heap_extra_B=3832
mem_stacks_B=0
heap_tree=empty
#-----------
snapshot=32
#-----------
time=1276757
mem_heap_B=36006048
mem_heap_extra_B=3824
mem_stacks_B=0
heap_tree=empty
#-----------
snapshot=33
#-----------
time=1276757
mem_heap_B=36005504
mem_heap_extra_B=3808
mem_stacks_B=0
heap_tree=empty
#-----------
snapshot=34
#-----------
time=1277976
mem_heap_B=36005776
mem_heap_extra_B=3816
mem_stacks_B=0
heap_tree=empty
#-----------
snapshot=35
#-----------
time=1278175
mem_heap_B=36006048
mem_heap_extra_B=3824
mem_stacks_B=0
heap_tree=empty
#-----------
snapshot=36
#-----------
time=1278230
mem_heap_B=36006320
mem_heap_extra_B=3832
mem_stacks_B=0
heap_tree=empty
#-----------
snapshot=37
#-----------
time=1457248
mem_heap_B=36006048
mem_heap_extra_B=3824
mem_stacks_B=0
heap_tree=empty
#-----------
snapshot=38
#-----------
time=1457371
mem_heap_B=36005504
mem_heap_extra_B=3808
mem_stacks_B=0
heap_tree=empty
#-----------
snapshot=39
#-----------
time=1458168
mem_heap_B=36005776
mem_heap_extra_B=3816
mem_stacks_B=0
heap_tree=empty
#-----------
snapshot=40
#-----------
time=1458458
mem_heap_B=36006048
mem_heap_extra_B=3824
mem_stacks_B=0
heap_tree=empty
#-----------
snapshot=41
#-----------
time=1458572
mem_heap_B=36006320
mem_heap_extra_B=3832
mem_stacks_B=0
heap_tree=empty
#-----------
snapshot=42
#-----------
time=1637372
mem_heap_B=36006048
mem_heap_extra_B=3824
mem_stacks_B=0
heap_tree=empty
#-----------
snapshot=43
#-----------
time=1637372
mem_heap_B=36005232
mem_heap_extra_B=3800
mem_stacks_B=0
heap_tree=empty
#-----------
snapshot=44
#-----------
time=1638115
mem_heap_B=36005504
mem_heap_extra_B=3808
mem_stacks_B=0
heap_tree=empty
#-----------
snapshot=45
#-----------
time=1638556
mem_heap_B=36005776
mem_heap_extra_B=3816
mem_stacks_B=0
heap_tree=detailed
n3: 36005776 (heap allocation functions) malloc/new/new[], --alloc-fns, etc.
 n1: 18000000 0x401596: mat_pmult (in /home/spp/eda/build-release/examples/matmult/pthreads.matmult)
  n0: 18000000 0x4018F6: main (in /home/spp/eda/build-release/examples/matmult/pthreads.matmult)
 n0: 18000000 0x40185D: main (in /home/spp/eda/build-release/examples/matmult/pthreads.matmult)
 n0: 5776 in 4 places, all below massif's threshold (1.00%)
#-----------
snapshot=46
#-----------
time=1638717
mem_heap_B=36006048
mem_heap_extra_B=3824
mem_stacks_B=0
heap_tree=empty
#-----------
snapshot=47
#-----------
time=1638878
mem_heap_B=36006320
mem_heap_extra_B=3832
mem_stacks_B=0
heap_tree=empty
#-----------
snapshot=48
#-----------
time=1819231
mem_heap_B=36006048
mem_heap_extra_B=3824
mem_stacks_B=0
heap_tree=empty
#-----------
snapshot=49
#-----------
time=1819276
mem_heap_B=544
mem_heap_extra_B=16
mem_stacks_B=0
heap_tree=empty
#-----------
snapshot=50
#-----------
time=1819276
mem_heap_B=272
mem_heap_extra_B=8
mem_stacks_B=0
heap_tree=empty
#-----------
snapshot=51
#-----------
time=1819276
mem_heap_B=0
mem_heap_extra_B=0
mem_stacks_B=0
heap_tree=empty
