desc: --time-unit=ms --massif-out-file=massif.eda.alt.drift.out
cmd: ./eda.alt.drift 5
time_unit: ms
#-----------
snapshot=0
#-----------
time=0
mem_heap_B=0
mem_heap_extra_B=0
mem_stacks_B=0
heap_tree=empty
#-----------
snapshot=1
#-----------
time=897
mem_heap_B=48
mem_heap_extra_B=8
mem_stacks_B=0
heap_tree=empty
#-----------
snapshot=2
#-----------
time=1324
mem_heap_B=13064
mem_heap_extra_B=1272
mem_stacks_B=0
heap_tree=empty
#-----------
snapshot=3
#-----------
time=1542
mem_heap_B=13064
mem_heap_extra_B=1272
mem_stacks_B=0
heap_tree=empty
#-----------
snapshot=4
#-----------
time=1900
mem_heap_B=13064
mem_heap_extra_B=1272
mem_stacks_B=0
heap_tree=empty
#-----------
snapshot=5
#-----------
time=2284
mem_heap_B=13128
mem_heap_extra_B=1280
mem_stacks_B=0
heap_tree=empty
#-----------
snapshot=6
#-----------
time=2604
mem_heap_B=13064
mem_heap_extra_B=1272
mem_stacks_B=0
heap_tree=empty
#-----------
snapshot=7
#-----------
time=2856
mem_heap_B=14408
mem_heap_extra_B=1440
mem_stacks_B=0
heap_tree=peak
n11: 14408 (heap allocation functions) malloc/new/new[], --alloc-fns, etc.
 n1: 4096 0x56DBE0A: _IO_file_doallocate (filedoalloc.c:101)
  n1: 4096 0x56EBBC4: _IO_doallocbuf (genops.c:398)
   n1: 4096 0x56EAA52: _IO_file_underflow@@GLIBC_2.2.5 (fileops.c:548)
    n1: 4096 0x56EBC80: _IO_default_uflow (genops.c:413)
     n1: 4096 0x56C9840: _IO_vfscanf (vfscanf.c:631)
      n1: 4096 0x56D9C2A: __isoc99_scanf (isoc99_scanf.c:37)
       n0: 4096 0x400CB4: main (in /home/spp/eda/build-release/examples/drift/eda.alt.drift)
 n2: 3312 0x4E36AF9: eda_source_create (in /home/spp/eda/build-release/libeda.so)
  n0: 2760 0x400D40: main (in /home/spp/eda/build-release/examples/drift/eda.alt.drift)
  n0: 552 0x400DFD: main (in /home/spp/eda/build-release/examples/drift/eda.alt.drift)
 n1: 1440 0x4E36948: _eda_watch_create (in /home/spp/eda/build-release/libeda.so)
  n1: 1440 0x4E36D3A: _eda_source_install (in /home/spp/eda/build-release/libeda.so)
   n1: 1440 0x4E36FB3: _eda_source_manage (in /home/spp/eda/build-release/libeda.so)
    n1: 1440 0x4E3994E: _eda_task_invoke (in /home/spp/eda/build-release/libeda.so)
     n1: 1440 0x4E36891: _eda_queue_manager_invoke (in /home/spp/eda/build-release/libeda.so)
      n1: 1440 0x4E383E9: _eda_queue_invoke (in /home/spp/eda/build-release/libeda.so)
       n1: 1440 0x503F27A: ??? (in /usr/lib/x86_64-linux-gnu/libpthread_workqueue.so.0.0.0)
        n1: 1440 0x524B7FA: start_thread (pthread_create.c:465)
         n0: 1440 0x577AB5D: clone (clone.S:95)
 n1: 1152 0x4013C85: _dl_allocate_tls (dl-tls.c:290)
  n3: 1152 0x524C420: pthread_create@@GLIBC_2.2.5 (allocatestack.c:597)
   n1: 576 0x503F483: ??? (in /usr/lib/x86_64-linux-gnu/libpthread_workqueue.so.0.0.0)
    n1: 576 0x503F5FB: ??? (in /usr/lib/x86_64-linux-gnu/libpthread_workqueue.so.0.0.0)
     n1: 576 0x524B7FA: start_thread (pthread_create.c:465)
      n0: 576 0x577AB5D: clone (clone.S:95)
   n1: 288 0x504033E: ??? (in /usr/lib/x86_64-linux-gnu/libpthread_workqueue.so.0.0.0)
    n1: 288 0x503EBDD: pthread_workqueue_create_np (in /usr/lib/x86_64-linux-gnu/libpthread_workqueue.so.0.0.0)
     n1: 288 0x4E37F53: _eda_sched_init (in /home/spp/eda/build-release/libeda.so)
      n1: 288 0x4E36308: eda_init (in /home/spp/eda/build-release/libeda.so)
       n1: 288 0x4E381B3: _eda_queue_push (in /home/spp/eda/build-release/libeda.so)
        n1: 288 0x4E37109: eda_source_start (in /home/spp/eda/build-release/libeda.so)
         n0: 288 0x400E5A: main (in /home/spp/eda/build-release/examples/drift/eda.alt.drift)
   n1: 288 0x504068D: ??? (in /usr/lib/x86_64-linux-gnu/libpthread_workqueue.so.0.0.0)
    n1: 288 0x503ECC4: pthread_workqueue_additem_np (in /usr/lib/x86_64-linux-gnu/libpthread_workqueue.so.0.0.0)
     n1: 288 0x4E37E9F: _eda_sched_schedule_queue (in /home/spp/eda/build-release/libeda.so)
      n1: 288 0x4E377A5: _eda_manager_init (in /home/spp/eda/build-release/libeda.so)
       n1: 288 0x4E36317: eda_init (in /home/spp/eda/build-release/libeda.so)
        n1: 288 0x4E381B3: _eda_queue_push (in /home/spp/eda/build-release/libeda.so)
         n1: 288 0x4E37109: eda_source_start (in /home/spp/eda/build-release/libeda.so)
          n0: 288 0x400E5A: main (in /home/spp/eda/build-release/examples/drift/eda.alt.drift)
 n2: 960 0x4E3987F: _eda_task_create (in /home/spp/eda/build-release/libeda.so)
  n1: 896 0x4E3851D: eda_async_f (in /home/spp/eda/build-release/libeda.so)
   n1: 896 0x4E3727F: _eda_notify_watchers (in /home/spp/eda/build-release/libeda.so)
    n1: 896 0x4E37699: _eda_manager_process_events (in /home/spp/eda/build-release/libeda.so)
     n1: 896 0x4E36848: _eda_queue_manager_invoke (in /home/spp/eda/build-release/libeda.so)
      n1: 896 0x4E383E9: _eda_queue_invoke (in /home/spp/eda/build-release/libeda.so)
       n1: 896 0x503F27A: ??? (in /usr/lib/x86_64-linux-gnu/libpthread_workqueue.so.0.0.0)
        n1: 896 0x524B7FA: start_thread (pthread_create.c:465)
         n0: 896 0x577AB5D: clone (clone.S:95)
  n0: 64 in 1 place, below massif's threshold (1.00%)
 n1: 792 0x5463B6F: _Block_copy (in /usr/lib/x86_64-linux-gnu/libBlocksRuntime.so.0.0.0)
  n2: 792 0x4E37C9D: eda_source_set_event_handler (in /home/spp/eda/build-release/libeda.so)
   n0: 660 0x400D92: main (in /home/spp/eda/build-release/examples/drift/eda.alt.drift)
   n0: 132 in 1 place, below massif's threshold (1.00%)
 n0: 720 0x400CE3: main (in /home/spp/eda/build-release/examples/drift/eda.alt.drift)
 n2: 720 0x4E37BB1: eda_source_set_timer (in /home/spp/eda/build-release/libeda.so)
  n0: 600 0x400D52: main (in /home/spp/eda/build-release/examples/drift/eda.alt.drift)
  n0: 120 in 1 place, below massif's threshold (1.00%)
 n1: 640 0x503EE34: ??? (in /usr/lib/x86_64-linux-gnu/libpthread_workqueue.so.0.0.0)
  n1: 640 0x503EC95: pthread_workqueue_additem_np (in /usr/lib/x86_64-linux-gnu/libpthread_workqueue.so.0.0.0)
   n2: 640 0x4E37E9F: _eda_sched_schedule_queue (in /home/spp/eda/build-release/libeda.so)
    n1: 640 0x4E38531: eda_async_f (in /home/spp/eda/build-release/libeda.so)
     n1: 640 0x4E3727F: _eda_notify_watchers (in /home/spp/eda/build-release/libeda.so)
      n1: 640 0x4E37699: _eda_manager_process_events (in /home/spp/eda/build-release/libeda.so)
       n1: 640 0x4E36848: _eda_queue_manager_invoke (in /home/spp/eda/build-release/libeda.so)
        n1: 640 0x4E383E9: _eda_queue_invoke (in /home/spp/eda/build-release/libeda.so)
         n1: 640 0x503F27A: ??? (in /usr/lib/x86_64-linux-gnu/libpthread_workqueue.so.0.0.0)
          n1: 640 0x524B7FA: start_thread (pthread_create.c:465)
           n0: 640 0x577AB5D: clone (clone.S:95)
    n0: 0 in 1 place, below massif's threshold (1.00%)
 n1: 384 0x503EB83: pthread_workqueue_create_np (in /usr/lib/x86_64-linux-gnu/libpthread_workqueue.so.0.0.0)
  n0: 384 in 8 places, all below massif's threshold (1.00%)
 n0: 192 in 2 places, all below massif's threshold (1.00%)
#-----------
snapshot=8
#-----------
time=3276
mem_heap_B=13128
mem_heap_extra_B=1280
mem_stacks_B=0
heap_tree=empty
#-----------
snapshot=9
#-----------
time=3596
mem_heap_B=13320
mem_heap_extra_B=1304
mem_stacks_B=0
heap_tree=empty
#-----------
snapshot=10
#-----------
time=3916
mem_heap_B=13192
mem_heap_extra_B=1288
mem_stacks_B=0
heap_tree=empty
#-----------
snapshot=11
#-----------
time=4236
mem_heap_B=13064
mem_heap_extra_B=1272
mem_stacks_B=0
heap_tree=empty
#-----------
snapshot=12
#-----------
time=4556
mem_heap_B=13128
mem_heap_extra_B=1280
mem_stacks_B=0
heap_tree=empty
#-----------
snapshot=13
#-----------
time=4876
mem_heap_B=13256
mem_heap_extra_B=1296
mem_stacks_B=0
heap_tree=empty
#-----------
snapshot=14
#-----------
time=5196
mem_heap_B=13064
mem_heap_extra_B=1272
mem_stacks_B=0
heap_tree=empty
#-----------
snapshot=15
#-----------
time=5696
mem_heap_B=13064
mem_heap_extra_B=1272
mem_stacks_B=0
heap_tree=empty
#-----------
snapshot=16
#-----------
time=6256
mem_heap_B=13064
mem_heap_extra_B=1272
mem_stacks_B=0
heap_tree=empty
#-----------
snapshot=17
#-----------
time=6816
mem_heap_B=13192
mem_heap_extra_B=1288
mem_stacks_B=0
heap_tree=empty
#-----------
snapshot=18
#-----------
time=7096
mem_heap_B=13192
mem_heap_extra_B=1288
mem_stacks_B=0
heap_tree=empty
#-----------
snapshot=19
#-----------
time=7376
mem_heap_B=13320
mem_heap_extra_B=1304
mem_stacks_B=0
heap_tree=empty
#-----------
snapshot=20
#-----------
time=7656
mem_heap_B=13128
mem_heap_extra_B=1280
mem_stacks_B=0
heap_tree=empty
#-----------
snapshot=21
#-----------
time=7936
mem_heap_B=13128
mem_heap_extra_B=1280
mem_stacks_B=0
heap_tree=empty
#-----------
snapshot=22
#-----------
time=8216
mem_heap_B=13064
mem_heap_extra_B=1272
mem_stacks_B=0
heap_tree=empty
#-----------
snapshot=23
#-----------
time=8496
mem_heap_B=13192
mem_heap_extra_B=1288
mem_stacks_B=0
heap_tree=empty
#-----------
snapshot=24
#-----------
time=8776
mem_heap_B=13192
mem_heap_extra_B=1288
mem_stacks_B=0
heap_tree=empty
#-----------
snapshot=25
#-----------
time=9056
mem_heap_B=13064
mem_heap_extra_B=1272
mem_stacks_B=0
heap_tree=empty
#-----------
snapshot=26
#-----------
time=9336
mem_heap_B=13064
mem_heap_extra_B=1272
mem_stacks_B=0
heap_tree=empty
#-----------
snapshot=27
#-----------
time=9616
mem_heap_B=13064
mem_heap_extra_B=1272
mem_stacks_B=0
heap_tree=empty
#-----------
snapshot=28
#-----------
time=9896
mem_heap_B=13192
mem_heap_extra_B=1288
mem_stacks_B=0
heap_tree=empty
#-----------
snapshot=29
#-----------
time=10176
mem_heap_B=13064
mem_heap_extra_B=1272
mem_stacks_B=0
heap_tree=empty
#-----------
snapshot=30
#-----------
time=10456
mem_heap_B=13192
mem_heap_extra_B=1288
mem_stacks_B=0
heap_tree=empty
#-----------
snapshot=31
#-----------
time=10736
mem_heap_B=13128
mem_heap_extra_B=1280
mem_stacks_B=0
heap_tree=empty
#-----------
snapshot=32
#-----------
time=11016
mem_heap_B=13128
mem_heap_extra_B=1280
mem_stacks_B=0
heap_tree=empty
#-----------
snapshot=33
#-----------
time=11296
mem_heap_B=13064
mem_heap_extra_B=1272
mem_stacks_B=0
heap_tree=empty
#-----------
snapshot=34
#-----------
time=11576
mem_heap_B=13192
mem_heap_extra_B=1288
mem_stacks_B=0
heap_tree=empty
#-----------
snapshot=35
#-----------
time=11856
mem_heap_B=13128
mem_heap_extra_B=1280
mem_stacks_B=0
heap_tree=empty
#-----------
snapshot=36
#-----------
time=12136
mem_heap_B=13064
mem_heap_extra_B=1272
mem_stacks_B=0
heap_tree=empty
#-----------
snapshot=37
#-----------
time=12416
mem_heap_B=13128
mem_heap_extra_B=1280
mem_stacks_B=0
heap_tree=empty
#-----------
snapshot=38
#-----------
time=12696
mem_heap_B=13064
mem_heap_extra_B=1272
mem_stacks_B=0
heap_tree=empty
#-----------
snapshot=39
#-----------
time=12976
mem_heap_B=13128
mem_heap_extra_B=1280
mem_stacks_B=0
heap_tree=empty
#-----------
snapshot=40
#-----------
time=13256
mem_heap_B=13128
mem_heap_extra_B=1280
mem_stacks_B=0
heap_tree=empty
#-----------
snapshot=41
#-----------
time=13536
mem_heap_B=13192
mem_heap_extra_B=1288
mem_stacks_B=0
heap_tree=empty
#-----------
snapshot=42
#-----------
time=13816
mem_heap_B=13832
mem_heap_extra_B=1368
mem_stacks_B=0
heap_tree=empty
#-----------
snapshot=43
#-----------
time=14096
mem_heap_B=13064
mem_heap_extra_B=1272
mem_stacks_B=0
heap_tree=empty
#-----------
snapshot=44
#-----------
time=14376
mem_heap_B=13064
mem_heap_extra_B=1272
mem_stacks_B=0
heap_tree=empty
#-----------
snapshot=45
#-----------
time=14656
mem_heap_B=13128
mem_heap_extra_B=1280
mem_stacks_B=0
heap_tree=empty
#-----------
snapshot=46
#-----------
time=14936
mem_heap_B=13128
mem_heap_extra_B=1280
mem_stacks_B=0
heap_tree=empty
#-----------
snapshot=47
#-----------
time=15216
mem_heap_B=13064
mem_heap_extra_B=1272
mem_stacks_B=0
heap_tree=empty
#-----------
snapshot=48
#-----------
time=15496
mem_heap_B=13128
mem_heap_extra_B=1280
mem_stacks_B=0
heap_tree=empty
#-----------
snapshot=49
#-----------
time=15776
mem_heap_B=13064
mem_heap_extra_B=1272
mem_stacks_B=0
heap_tree=empty
#-----------
snapshot=50
#-----------
time=15994
mem_heap_B=13064
mem_heap_extra_B=1272
mem_stacks_B=0
heap_tree=empty
#-----------
snapshot=51
#-----------
time=16212
mem_heap_B=13064
mem_heap_extra_B=1272
mem_stacks_B=0
heap_tree=empty
#-----------
snapshot=52
#-----------
time=16430
mem_heap_B=13000
mem_heap_extra_B=1264
mem_stacks_B=0
heap_tree=empty
#-----------
snapshot=53
#-----------
time=16648
mem_heap_B=13192
mem_heap_extra_B=1288
mem_stacks_B=0
heap_tree=empty
#-----------
snapshot=54
#-----------
time=16866
mem_heap_B=13064
mem_heap_extra_B=1272
mem_stacks_B=0
heap_tree=empty
#-----------
snapshot=55
#-----------
time=17084
mem_heap_B=13064
mem_heap_extra_B=1272
mem_stacks_B=0
heap_tree=empty
#-----------
snapshot=56
#-----------
time=17302
mem_heap_B=13192
mem_heap_extra_B=1288
mem_stacks_B=0
heap_tree=empty
#-----------
snapshot=57
#-----------
time=17520
mem_heap_B=13064
mem_heap_extra_B=1272
mem_stacks_B=0
heap_tree=empty
#-----------
snapshot=58
#-----------
time=17738
mem_heap_B=13192
mem_heap_extra_B=1288
mem_stacks_B=0
heap_tree=detailed
n11: 13192 (heap allocation functions) malloc/new/new[], --alloc-fns, etc.
 n1: 4096 0x56DBE0A: _IO_file_doallocate (filedoalloc.c:101)
  n1: 4096 0x56EBBC4: _IO_doallocbuf (genops.c:398)
   n1: 4096 0x56EAA52: _IO_file_underflow@@GLIBC_2.2.5 (fileops.c:548)
    n1: 4096 0x56EBC80: _IO_default_uflow (genops.c:413)
     n1: 4096 0x56C9840: _IO_vfscanf (vfscanf.c:631)
      n1: 4096 0x56D9C2A: __isoc99_scanf (isoc99_scanf.c:37)
       n0: 4096 0x400CB4: main (in /home/spp/eda/build-release/examples/drift/eda.alt.drift)
 n2: 3312 0x4E36AF9: eda_source_create (in /home/spp/eda/build-release/libeda.so)
  n0: 2760 0x400D40: main (in /home/spp/eda/build-release/examples/drift/eda.alt.drift)
  n0: 552 0x400DFD: main (in /home/spp/eda/build-release/examples/drift/eda.alt.drift)
 n1: 1440 0x4E36948: _eda_watch_create (in /home/spp/eda/build-release/libeda.so)
  n1: 1440 0x4E36D3A: _eda_source_install (in /home/spp/eda/build-release/libeda.so)
   n1: 1440 0x4E36FB3: _eda_source_manage (in /home/spp/eda/build-release/libeda.so)
    n1: 1440 0x4E3994E: _eda_task_invoke (in /home/spp/eda/build-release/libeda.so)
     n1: 1440 0x4E36891: _eda_queue_manager_invoke (in /home/spp/eda/build-release/libeda.so)
      n1: 1440 0x4E383E9: _eda_queue_invoke (in /home/spp/eda/build-release/libeda.so)
       n1: 1440 0x503F27A: ??? (in /usr/lib/x86_64-linux-gnu/libpthread_workqueue.so.0.0.0)
        n1: 1440 0x524B7FA: start_thread (pthread_create.c:465)
         n0: 1440 0x577AB5D: clone (clone.S:95)
 n1: 1152 0x4013C85: _dl_allocate_tls (dl-tls.c:290)
  n3: 1152 0x524C420: pthread_create@@GLIBC_2.2.5 (allocatestack.c:597)
   n1: 576 0x503F483: ??? (in /usr/lib/x86_64-linux-gnu/libpthread_workqueue.so.0.0.0)
    n1: 576 0x503F5FB: ??? (in /usr/lib/x86_64-linux-gnu/libpthread_workqueue.so.0.0.0)
     n1: 576 0x524B7FA: start_thread (pthread_create.c:465)
      n0: 576 0x577AB5D: clone (clone.S:95)
   n1: 288 0x504033E: ??? (in /usr/lib/x86_64-linux-gnu/libpthread_workqueue.so.0.0.0)
    n1: 288 0x503EBDD: pthread_workqueue_create_np (in /usr/lib/x86_64-linux-gnu/libpthread_workqueue.so.0.0.0)
     n1: 288 0x4E37F53: _eda_sched_init (in /home/spp/eda/build-release/libeda.so)
      n1: 288 0x4E36308: eda_init (in /home/spp/eda/build-release/libeda.so)
       n1: 288 0x4E381B3: _eda_queue_push (in /home/spp/eda/build-release/libeda.so)
        n1: 288 0x4E37109: eda_source_start (in /home/spp/eda/build-release/libeda.so)
         n0: 288 0x400E5A: main (in /home/spp/eda/build-release/examples/drift/eda.alt.drift)
   n1: 288 0x504068D: ??? (in /usr/lib/x86_64-linux-gnu/libpthread_workqueue.so.0.0.0)
    n1: 288 0x503ECC4: pthread_workqueue_additem_np (in /usr/lib/x86_64-linux-gnu/libpthread_workqueue.so.0.0.0)
     n1: 288 0x4E37E9F: _eda_sched_schedule_queue (in /home/spp/eda/build-release/libeda.so)
      n1: 288 0x4E377A5: _eda_manager_init (in /home/spp/eda/build-release/libeda.so)
       n1: 288 0x4E36317: eda_init (in /home/spp/eda/build-release/libeda.so)
        n1: 288 0x4E381B3: _eda_queue_push (in /home/spp/eda/build-release/libeda.so)
         n1: 288 0x4E37109: eda_source_start (in /home/spp/eda/build-release/libeda.so)
          n0: 288 0x400E5A: main (in /home/spp/eda/build-release/examples/drift/eda.alt.drift)
 n1: 792 0x5463B6F: _Block_copy (in /usr/lib/x86_64-linux-gnu/libBlocksRuntime.so.0.0.0)
  n2: 792 0x4E37C9D: eda_source_set_event_handler (in /home/spp/eda/build-release/libeda.so)
   n0: 660 0x400D92: main (in /home/spp/eda/build-release/examples/drift/eda.alt.drift)
   n0: 132 in 1 place, below massif's threshold (1.00%)
 n0: 720 0x400CE3: main (in /home/spp/eda/build-release/examples/drift/eda.alt.drift)
 n2: 720 0x4E37BB1: eda_source_set_timer (in /home/spp/eda/build-release/libeda.so)
  n0: 600 0x400D52: main (in /home/spp/eda/build-release/examples/drift/eda.alt.drift)
  n0: 120 in 1 place, below massif's threshold (1.00%)
 n1: 384 0x503EB83: pthread_workqueue_create_np (in /usr/lib/x86_64-linux-gnu/libpthread_workqueue.so.0.0.0)
  n0: 384 in 8 places, all below massif's threshold (1.00%)
 n2: 320 0x4E3987F: _eda_task_create (in /home/spp/eda/build-release/libeda.so)
  n1: 256 0x4E3851D: eda_async_f (in /home/spp/eda/build-release/libeda.so)
   n1: 256 0x4E3727F: _eda_notify_watchers (in /home/spp/eda/build-release/libeda.so)
    n1: 256 0x4E37699: _eda_manager_process_events (in /home/spp/eda/build-release/libeda.so)
     n1: 256 0x4E36848: _eda_queue_manager_invoke (in /home/spp/eda/build-release/libeda.so)
      n1: 256 0x4E383E9: _eda_queue_invoke (in /home/spp/eda/build-release/libeda.so)
       n1: 256 0x503F27A: ??? (in /usr/lib/x86_64-linux-gnu/libpthread_workqueue.so.0.0.0)
        n1: 256 0x524B7FA: start_thread (pthread_create.c:465)
         n0: 256 0x577AB5D: clone (clone.S:95)
  n0: 64 in 1 place, below massif's threshold (1.00%)
 n0: 144 0x400CCE: main (in /home/spp/eda/build-release/examples/drift/eda.alt.drift)
 n0: 112 in 2 places, all below massif's threshold (1.00%)
#-----------
snapshot=59
#-----------
time=17956
mem_heap_B=13256
mem_heap_extra_B=1296
mem_stacks_B=0
heap_tree=empty
#-----------
snapshot=60
#-----------
time=18180
mem_heap_B=13192
mem_heap_extra_B=1288
mem_stacks_B=0
heap_tree=empty
#-----------
snapshot=61
#-----------
time=18398
mem_heap_B=13000
mem_heap_extra_B=1264
mem_stacks_B=0
heap_tree=empty
#-----------
snapshot=62
#-----------
time=18616
mem_heap_B=13064
mem_heap_extra_B=1272
mem_stacks_B=0
heap_tree=empty
#-----------
snapshot=63
#-----------
time=18834
mem_heap_B=13064
mem_heap_extra_B=1272
mem_stacks_B=0
heap_tree=empty
#-----------
snapshot=64
#-----------
time=19052
mem_heap_B=13064
mem_heap_extra_B=1272
mem_stacks_B=0
heap_tree=empty
#-----------
snapshot=65
#-----------
time=19270
mem_heap_B=13320
mem_heap_extra_B=1304
mem_stacks_B=0
heap_tree=empty
#-----------
snapshot=66
#-----------
time=19488
mem_heap_B=13064
mem_heap_extra_B=1272
mem_stacks_B=0
heap_tree=empty
#-----------
snapshot=67
#-----------
time=19706
mem_heap_B=13128
mem_heap_extra_B=1280
mem_stacks_B=0
heap_tree=empty
#-----------
snapshot=68
#-----------
time=19924
mem_heap_B=13128
mem_heap_extra_B=1280
mem_stacks_B=0
heap_tree=detailed
n11: 13128 (heap allocation functions) malloc/new/new[], --alloc-fns, etc.
 n1: 4096 0x56DBE0A: _IO_file_doallocate (filedoalloc.c:101)
  n1: 4096 0x56EBBC4: _IO_doallocbuf (genops.c:398)
   n1: 4096 0x56EAA52: _IO_file_underflow@@GLIBC_2.2.5 (fileops.c:548)
    n1: 4096 0x56EBC80: _IO_default_uflow (genops.c:413)
     n1: 4096 0x56C9840: _IO_vfscanf (vfscanf.c:631)
      n1: 4096 0x56D9C2A: __isoc99_scanf (isoc99_scanf.c:37)
       n0: 4096 0x400CB4: main (in /home/spp/eda/build-release/examples/drift/eda.alt.drift)
 n2: 3312 0x4E36AF9: eda_source_create (in /home/spp/eda/build-release/libeda.so)
  n0: 2760 0x400D40: main (in /home/spp/eda/build-release/examples/drift/eda.alt.drift)
  n0: 552 0x400DFD: main (in /home/spp/eda/build-release/examples/drift/eda.alt.drift)
 n1: 1440 0x4E36948: _eda_watch_create (in /home/spp/eda/build-release/libeda.so)
  n1: 1440 0x4E36D3A: _eda_source_install (in /home/spp/eda/build-release/libeda.so)
   n1: 1440 0x4E36FB3: _eda_source_manage (in /home/spp/eda/build-release/libeda.so)
    n1: 1440 0x4E3994E: _eda_task_invoke (in /home/spp/eda/build-release/libeda.so)
     n1: 1440 0x4E36891: _eda_queue_manager_invoke (in /home/spp/eda/build-release/libeda.so)
      n1: 1440 0x4E383E9: _eda_queue_invoke (in /home/spp/eda/build-release/libeda.so)
       n1: 1440 0x503F27A: ??? (in /usr/lib/x86_64-linux-gnu/libpthread_workqueue.so.0.0.0)
        n1: 1440 0x524B7FA: start_thread (pthread_create.c:465)
         n0: 1440 0x577AB5D: clone (clone.S:95)
 n1: 1152 0x4013C85: _dl_allocate_tls (dl-tls.c:290)
  n3: 1152 0x524C420: pthread_create@@GLIBC_2.2.5 (allocatestack.c:597)
   n1: 576 0x503F483: ??? (in /usr/lib/x86_64-linux-gnu/libpthread_workqueue.so.0.0.0)
    n1: 576 0x503F5FB: ??? (in /usr/lib/x86_64-linux-gnu/libpthread_workqueue.so.0.0.0)
     n1: 576 0x524B7FA: start_thread (pthread_create.c:465)
      n0: 576 0x577AB5D: clone (clone.S:95)
   n1: 288 0x504033E: ??? (in /usr/lib/x86_64-linux-gnu/libpthread_workqueue.so.0.0.0)
    n1: 288 0x503EBDD: pthread_workqueue_create_np (in /usr/lib/x86_64-linux-gnu/libpthread_workqueue.so.0.0.0)
     n1: 288 0x4E37F53: _eda_sched_init (in /home/spp/eda/build-release/libeda.so)
      n1: 288 0x4E36308: eda_init (in /home/spp/eda/build-release/libeda.so)
       n1: 288 0x4E381B3: _eda_queue_push (in /home/spp/eda/build-release/libeda.so)
        n1: 288 0x4E37109: eda_source_start (in /home/spp/eda/build-release/libeda.so)
         n0: 288 0x400E5A: main (in /home/spp/eda/build-release/examples/drift/eda.alt.drift)
   n1: 288 0x504068D: ??? (in /usr/lib/x86_64-linux-gnu/libpthread_workqueue.so.0.0.0)
    n1: 288 0x503ECC4: pthread_workqueue_additem_np (in /usr/lib/x86_64-linux-gnu/libpthread_workqueue.so.0.0.0)
     n1: 288 0x4E37E9F: _eda_sched_schedule_queue (in /home/spp/eda/build-release/libeda.so)
      n1: 288 0x4E377A5: _eda_manager_init (in /home/spp/eda/build-release/libeda.so)
       n1: 288 0x4E36317: eda_init (in /home/spp/eda/build-release/libeda.so)
        n1: 288 0x4E381B3: _eda_queue_push (in /home/spp/eda/build-release/libeda.so)
         n1: 288 0x4E37109: eda_source_start (in /home/spp/eda/build-release/libeda.so)
          n0: 288 0x400E5A: main (in /home/spp/eda/build-release/examples/drift/eda.alt.drift)
 n1: 792 0x5463B6F: _Block_copy (in /usr/lib/x86_64-linux-gnu/libBlocksRuntime.so.0.0.0)
  n2: 792 0x4E37C9D: eda_source_set_event_handler (in /home/spp/eda/build-release/libeda.so)
   n0: 660 0x400D92: main (in /home/spp/eda/build-release/examples/drift/eda.alt.drift)
   n0: 132 in 1 place, below massif's threshold (1.00%)
 n0: 720 0x400CE3: main (in /home/spp/eda/build-release/examples/drift/eda.alt.drift)
 n2: 720 0x4E37BB1: eda_source_set_timer (in /home/spp/eda/build-release/libeda.so)
  n0: 600 0x400D52: main (in /home/spp/eda/build-release/examples/drift/eda.alt.drift)
  n0: 120 in 1 place, below massif's threshold (1.00%)
 n1: 384 0x503EB83: pthread_workqueue_create_np (in /usr/lib/x86_64-linux-gnu/libpthread_workqueue.so.0.0.0)
  n0: 384 in 8 places, all below massif's threshold (1.00%)
 n2: 320 0x4E3987F: _eda_task_create (in /home/spp/eda/build-release/libeda.so)
  n1: 256 0x4E3851D: eda_async_f (in /home/spp/eda/build-release/libeda.so)
   n1: 256 0x4E3727F: _eda_notify_watchers (in /home/spp/eda/build-release/libeda.so)
    n1: 256 0x4E37699: _eda_manager_process_events (in /home/spp/eda/build-release/libeda.so)
     n1: 256 0x4E36848: _eda_queue_manager_invoke (in /home/spp/eda/build-release/libeda.so)
      n1: 256 0x4E383E9: _eda_queue_invoke (in /home/spp/eda/build-release/libeda.so)
       n1: 256 0x503F27A: ??? (in /usr/lib/x86_64-linux-gnu/libpthread_workqueue.so.0.0.0)
        n1: 256 0x524B7FA: start_thread (pthread_create.c:465)
         n0: 256 0x577AB5D: clone (clone.S:95)
  n0: 64 in 1 place, below massif's threshold (1.00%)
 n0: 144 0x400CCE: main (in /home/spp/eda/build-release/examples/drift/eda.alt.drift)
 n0: 48 in 2 places, all below massif's threshold (1.00%)
#-----------
snapshot=69
#-----------
time=20142
mem_heap_B=13256
mem_heap_extra_B=1296
mem_stacks_B=0
heap_tree=empty
#-----------
snapshot=70
#-----------
time=20360
mem_heap_B=13192
mem_heap_extra_B=1288
mem_stacks_B=0
heap_tree=empty
#-----------
snapshot=71
#-----------
time=20578
mem_heap_B=13064
mem_heap_extra_B=1272
mem_stacks_B=0
heap_tree=empty
#-----------
snapshot=72
#-----------
time=20796
mem_heap_B=13064
mem_heap_extra_B=1272
mem_stacks_B=0
heap_tree=empty
